{
  "__schema": {
    "types": [
      {
        "kind": "UNION",
        "name": "DocumentDetails",
        "possibleTypes": [
          {
            "name": "DocumentAssessment"
          },
          {
            "name": "DocumentAudit"
          },
          {
            "name": "DocumentBankGuarantee"
          },
          {
            "name": "DocumentBudget"
          },
          {
            "name": "DocumentCertificate"
          },
          {
            "name": "DocumentConfirmation"
          },
          {
            "name": "DocumentContract"
          },
          {
            "name": "DocumentEmergencyManagement"
          },
          {
            "name": "DocumentHouseRules"
          },
          {
            "name": "DocumentImage"
          },
          {
            "name": "DocumentInduction"
          },
          {
            "name": "DocumentInspection"
          },
          {
            "name": "DocumentInsurance"
          },
          {
            "name": "DocumentInvoice"
          },
          {
            "name": "DocumentLease"
          },
          {
            "name": "DocumentLicence"
          },
          {
            "name": "DocumentLog"
          },
          {
            "name": "DocumentManagementPlan"
          },
          {
            "name": "DocumentMSDS"
          },
          {
            "name": "DocumentPlan"
          },
          {
            "name": "DocumentProcedure"
          },
          {
            "name": "DocumentQuote"
          },
          {
            "name": "DocumentRegister"
          },
          {
            "name": "DocumentRegistration"
          },
          {
            "name": "DocumentReport"
          },
          {
            "name": "DocumentServiceReport"
          },
          {
            "name": "DocumentSWMS"
          }
        ]
      }
    ]
  }
}
